projetoSD/simulation/qsim/SDprojeto.msim.vcd
$comment
	File created using the following command:
		vcd file SDprojeto.msim.vcd -direction
$end
$date
	Sat Apr 25 17:05:34 2026
$end
$version
	ModelSim Version 2020.1
$end
$timescale
	1ps
$end

$scope module complementa2_vlg_vec_tst $end
$var reg 1 ! A0 $end
$var reg 1 " A1 $end
$var reg 1 # A2 $end
$var reg 1 $ A3 $end
$var reg 1 % A4 $end
$var reg 1 & SA $end
$var wire 1 ' F0 $end
$var wire 1 ( F1 $end
$var wire 1 ) F2 $end
$var wire 1 * F3 $end
$var wire 1 + F4 $end
$var wire 1 , SF $end

$scope module i1 $end
$var wire 1 - gnd $end
$var wire 1 . vcc $end
$var wire 1 / unknown $end
$var tri1 1 0 devclrn $end
$var tri1 1 1 devpor $end
$var tri1 1 2 devoe $end
$var wire 1 3 F0~output_o $end
$var wire 1 4 F1~output_o $end
$var wire 1 5 F2~output_o $end
$var wire 1 6 F3~output_o $end
$var wire 1 7 F4~output_o $end
$var wire 1 8 SF~output_o $end
$var wire 1 9 A0~input_o $end
$var wire 1 : A1~input_o $end
$var wire 1 ; SA~input_o $end
$var wire 1 < inst1|inst1~0_combout $end
$var wire 1 = A2~input_o $end
$var wire 1 > inst2|inst1~combout $end
$var wire 1 ? inst2|inst4~combout $end
$var wire 1 @ A3~input_o $end
$var wire 1 A inst3|inst1~combout $end
$var wire 1 B A4~input_o $end
$var wire 1 C inst4|inst1~combout $end
$upscope $end
$upscope $end
$enddefinitions $end
#0
$dumpvars
0!
0"
0#
0$
0%
0&
0'
0(
0)
0*
0+
0,
0-
1.
x/
10
11
12
03
04
05
06
07
08
09
0:
0;
0<
0=
1>
1?
0@
1A
0B
0C
$end
#10000
1!
19
13
1'
#20000
1"
0!
1:
09
03
0'
1<
14
1(
#30000
1!
19
13
1'
#40000
1#
0"
0!
1=
0:
09
03
0>
0'
0<
04
15
1)
0(
#50000
1!
19
13
1'
#60000
1"
0!
1:
09
03
0'
1<
14
1(
#70000
1!
19
13
1'
#80000
1$
0#
0"
0!
1@
0=
0:
09
03
0A
1>
0'
0<
04
05
16
1*
0)
0(
#90000
1!
19
13
1'
#100000
1"
0!
1:
09
03
0'
1<
14
1(
#110000
1!
19
13
1'
#120000
1#
0"
0!
1=
0:
09
03
0>
0'
0<
04
15
1)
0(
#130000
1!
19
13
1'
#140000
1"
0!
1:
09
03
0'
1<
14
1(
#150000
1!
19
13
1'
#160000
1%
0$
0#
0"
0!
1B
0@
0=
0:
09
03
1A
1>
0'
1C
0<
04
17
05
06
0*
0)
1+
0(
#170000
1!
19
13
1'
#180000
1"
0!
1:
09
03
0'
1<
14
1(
#190000
1!
19
13
1'
#200000
1#
0"
0!
1=
0:
09
03
0>
0'
0<
04
15
1)
0(
#210000
1!
19
13
1'
#220000
1"
0!
1:
09
03
0'
1<
14
1(
#230000
1!
19
13
1'
#240000
1$
0#
0"
0!
1@
0=
0:
09
03
0A
1>
0'
0<
04
05
16
1*
0)
0(
#250000
1!
19
13
1'
#260000
1"
0!
1:
09
03
0'
1<
14
1(
#270000
1!
19
13
1'
#280000
1#
0"
0!
1=
0:
09
03
0>
0'
0<
04
15
1)
0(
#290000
1!
19
13
1'
#300000
1"
0!
1:
09
03
0'
1<
14
1(
#310000
1!
19
13
1'
#320000
1&
0%
0$
0#
0"
0!
0B
0@
0=
0:
1;
09
03
18
0?
1>
1,
0'
0<
04
05
1A
0)
0(
0C
07
06
0*
0+
#330000
1!
19
13
1?
0>
1'
1<
14
15
0A
1)
1(
1C
17
16
1*
1+
#340000
1"
0!
1:
09
03
0'
#350000
1!
19
13
1'
0<
04
0(
#360000
1#
0"
0!
1=
0:
09
03
0'
#370000
1!
19
13
1>
1'
1<
14
05
0)
1(
#380000
1"
0!
1:
09
03
0'
#390000
1!
19
13
1'
0<
04
0(
#400000
1$
0#
0"
0!
1@
0=
0:
09
03
1A
0?
0'
06
0A
0*
16
1*
#410000
1!
19
13
1?
0>
1'
1<
14
15
1A
1)
1(
06
0*
#420000
1"
0!
1:
09
03
0'
#430000
1!
19
13
1'
0<
04
0(
#440000
1#
0"
0!
1=
0:
09
03
0'
#450000
1!
19
13
1>
1'
1<
14
05
0)
1(
#460000
1"
0!
1:
09
03
0'
#470000
1!
19
13
1'
0<
04
0(
#480000
1%
0$
0#
0"
0!
1B
0@
0=
0:
09
03
0A
0?
0'
0C
07
16
1A
1*
0+
1C
17
06
0*
1+
#490000
1!
19
13
1?
0>
1'
1<
14
15
0A
1)
1(
0C
07
16
1*
0+
#500000
1"
0!
1:
09
03
0'
#510000
1!
19
13
1'
0<
04
0(
#520000
1#
0"
0!
1=
0:
09
03
0'
#530000
1!
19
13
1>
1'
1<
14
05
0)
1(
#540000
1"
0!
1:
09
03
0'
#550000
1!
19
13
1'
0<
04
0(
#560000
1$
0#
0"
0!
1@
0=
0:
09
03
1A
0?
0'
06
0A
0*
16
1*
#570000
1!
19
13
1?
0>
1'
1<
14
15
1A
1)
1(
06
0*
#580000
1"
0!
1:
09
03
0'
#590000
1!
19
13
1'
0<
04
0(
#600000
1#
0"
0!
1=
0:
09
03
0'
#610000
1!
19
13
1>
1'
1<
14
05
0)
1(
#620000
1"
0!
1:
09
03
0'
#630000
1!
19
13
1'
0<
04
0(
#640000
0&
0%
0$
0#
0"
0!
0B
0@
0=
0:
0;
09
03
08
0,
0'
#650000
1!
19
13
1'
#660000
1"
0!
1:
09
03
0'
1<
14
1(
#670000
1!
19
13
1'
#680000
1#
0"
0!
1=
0:
09
03
0>
0'
0<
04
15
1)
0(
#690000
1!
19
13
1'
#700000
1"
0!
1:
09
03
0'
1<
14
1(
#710000
1!
19
13
1'
#720000
1$
0#
0"
0!
1@
0=
0:
09
03
0A
1>
0'
0<
04
05
16
1*
0)
0(
#730000
1!
19
13
1'
#740000
1"
0!
1:
09
03
0'
1<
14
1(
#750000
1!
19
13
1'
#760000
1#
0"
0!
1=
0:
09
03
0>
0'
0<
04
15
1)
0(
#770000
1!
19
13
1'
#780000
1"
0!
1:
09
03
0'
1<
14
1(
#790000
1!
19
13
1'
#800000
1%
0$
0#
0"
0!
1B
0@
0=
0:
09
03
1A
1>
0'
1C
0<
04
17
05
06
0*
0)
1+
0(
#810000
1!
19
13
1'
#820000
1"
0!
1:
09
03
0'
1<
14
1(
#830000
1!
19
13
1'
#840000
1#
0"
0!
1=
0:
09
03
0>
0'
0<
04
15
1)
0(
#850000
1!
19
13
1'
#860000
1"
0!
1:
09
03
0'
1<
14
1(
#870000
1!
19
13
1'
#880000
1$
0#
0"
0!
1@
0=
0:
09
03
0A
1>
0'
0<
04
05
16
1*
0)
0(
#890000
1!
19
13
1'
#900000
1"
0!
1:
09
03
0'
1<
14
1(
#910000
1!
19
13
1'
#920000
1#
0"
0!
1=
0:
09
03
0>
0'
0<
04
15
1)
0(
#930000
1!
19
13
1'
#940000
1"
0!
1:
09
03
0'
1<
14
1(
#950000
1!
19
13
1'
#960000
1&
0%
0$
0#
0"
0!
0B
0@
0=
0:
1;
09
03
18
0?
1>
1,
0'
0<
04
05
1A
0)
0(
0C
07
06
0*
0+
#970000
1!
19
13
1?
0>
1'
1<
14
15
0A
1)
1(
1C
17
16
1*
1+
#980000
1"
0!
1:
09
03
0'
#990000
1!
19
13
1'
0<
04
0(
