projetoSD/simulation/qsim/SDprojeto.msim.vcd
$comment
	File created using the following command:
		vcd file SDprojeto.msim.vcd -direction
$end
$date
	Sun Apr 26 00:43:55 2026
$end
$version
	ModelSim Version 2020.1
$end
$timescale
	1ps
$end

$scope module somador_vlg_vec_tst $end
$var reg 1 ! A0 $end
$var reg 1 " A1 $end
$var reg 1 # A2 $end
$var reg 1 $ A3 $end
$var reg 1 % B0 $end
$var reg 1 & B1 $end
$var reg 1 ' B2 $end
$var reg 1 ( B3 $end
$var reg 1 ) SA $end
$var reg 1 * SB $end
$var reg 1 + SLECT $end
$var wire 1 , F0 $end
$var wire 1 - F1 $end
$var wire 1 . F2 $end
$var wire 1 / F3 $end
$var wire 1 0 F4 $end
$var wire 1 1 SF $end

$scope module i1 $end
$var wire 1 2 gnd $end
$var wire 1 3 vcc $end
$var wire 1 4 unknown $end
$var tri1 1 5 devclrn $end
$var tri1 1 6 devpor $end
$var tri1 1 7 devoe $end
$var wire 1 8 F0~output_o $end
$var wire 1 9 F1~output_o $end
$var wire 1 : F2~output_o $end
$var wire 1 ; F3~output_o $end
$var wire 1 < F4~output_o $end
$var wire 1 = SF~output_o $end
$var wire 1 > B0~input_o $end
$var wire 1 ? A0~input_o $end
$var wire 1 @ inst9|inst12~0_combout $end
$var wire 1 A A1~input_o $end
$var wire 1 B inst3|inst5~0_combout $end
$var wire 1 C SB~input_o $end
$var wire 1 D SLECT~input_o $end
$var wire 1 E B3~input_o $end
$var wire 1 F B2~input_o $end
$var wire 1 G B1~input_o $end
$var wire 1 H inst15~0_combout $end
$var wire 1 I inst1|inst|inst4~2_combout $end
$var wire 1 J A2~input_o $end
$var wire 1 K A3~input_o $end
$var wire 1 L inst18~0_combout $end
$var wire 1 M SA~input_o $end
$var wire 1 N inst18~1_combout $end
$var wire 1 O inst12~combout $end
$var wire 1 P inst|inst2|inst4~combout $end
$var wire 1 Q inst|inst3|inst1~combout $end
$var wire 1 R inst|inst2|inst1~combout $end
$var wire 1 S inst1|inst1|inst4~combout $end
$var wire 1 T inst|inst1|inst1~combout $end
$var wire 1 U inst1|inst13~combout $end
$var wire 1 V inst4|inst6~0_combout $end
$var wire 1 W inst1|inst14~combout $end
$var wire 1 X inst5|inst6~0_combout $end
$var wire 1 Y inst1|inst2|inst4~combout $end
$var wire 1 Z inst1|inst15~combout $end
$var wire 1 [ inst6|inst6~0_combout $end
$var wire 1 \ inst7|inst6~0_combout $end
$var wire 1 ] inst9|inst1|inst1~2_combout $end
$var wire 1 ^ inst|inst|inst4~0_combout $end
$var wire 1 _ inst9|inst1|inst1~3_combout $end
$var wire 1 ` inst8|inst1~combout $end
$var wire 1 a inst9|inst1|inst1~4_combout $end
$var wire 1 b inst9|inst14~0_combout $end
$var wire 1 c inst9|inst14~1_combout $end
$var wire 1 d inst9|inst2|inst1~combout $end
$var wire 1 e inst9|inst2|inst4~combout $end
$var wire 1 f inst9|inst15~2_combout $end
$var wire 1 g inst9|inst15~3_combout $end
$var wire 1 h inst9|inst3|inst1~combout $end
$var wire 1 i inst9|inst4|inst1~0_combout $end
$var wire 1 j inst16~0_combout $end
$var wire 1 k inst16~1_combout $end
$upscope $end
$upscope $end
$enddefinitions $end
#0
$dumpvars
0!
0"
0#
0$
0%
0&
0'
0(
0)
0*
0+
0,
0-
0.
0/
00
01
02
13
x4
15
16
17
08
09
0:
0;
0<
0=
0>
0?
0@
0A
0B
0C
0D
0E
0F
0G
0H
0I
0J
0K
0L
0M
0N
0O
1P
0Q
1R
1S
0T
0U
0V
0W
0X
0Y
0Z
0[
0\
0]
0^
0_
0`
0a
1b
0c
1d
0e
0f
1g
1h
0i
0j
0k
$end
#10000
1!
1?
1L
1@
18
1j
1,
#20000
1"
0!
1A
0?
1_
1T
0@
08
0,
1a
19
1-
#30000
1%
1!
1>
1?
1H
1B
1]
1V
0_
0b
0j
1c
0a
09
1j
0d
0-
1:
1.
#40000
1#
0"
0!
1J
0A
0?
0c
0R
1_
0T
0B
1@
18
1d
1X
0V
0]
1,
1a
19
0:
1f
1b
0X
0_
0.
1-
0g
1c
0f
0a
09
0h
0d
1g
0-
1:
1;
1h
1/
1.
0;
0/
#50000
1!
1?
1B
0@
08
1]
0,
1_
1a
19
1-
#60000
1&
0%
1"
0!
1G
0>
1A
0?
0]
1U
0B
0_
1T
1_
1V
1]
0a
09
0b
1X
0_
0-
1a
19
0c
1f
1-
0a
09
0j
1d
0g
0-
0:
0h
0.
1;
1/
#70000
1!
1?
1@
18
1j
1,
#80000
1$
0#
0"
0!
1K
0J
0A
0?
0f
1Q
1c
1R
1_
0T
0@
08
1g
1[
0d
0X
0V
0,
1a
19
1:
1h
1f
0[
1b
1.
1-
1i
1<
0;
0g
0c
0/
10
0i
0<
0h
1d
00
0:
1;
1/
0.
#90000
1%
1!
1>
1?
1B
0]
1V
0_
0b
0j
1c
0a
09
1j
0d
0-
1:
1.
#100000
1"
0!
1A
0?
1_
1T
0B
1@
18
1]
1,
1a
19
0_
1-
0a
09
0-
#110000
1!
1?
1B
0@
08
0]
0,
1_
1a
19
1-
#120000
1'
0&
1#
0%
0"
0!
1F
0G
1J
0>
0A
0?
1b
1W
1]
0U
0c
0R
0B
0_
0T
1c
1X
1_
0V
0j
1d
0]
0a
09
0:
1j
0d
0f
1[
0b
0_
0.
0-
1a
19
1:
1g
0c
1.
1-
1i
0a
09
1<
1h
0j
1d
10
0-
0:
0;
0/
0.
#130000
1!
1?
1@
18
1j
1,
#140000
1"
0!
1A
0?
1_
1T
0@
08
0,
1a
19
1-
#150000
1%
1!
1>
1?
1B
1]
1V
0_
1b
0j
1c
0a
09
1j
0d
0-
1:
1.
#160000
1)
0$
0#
0"
0!
1M
0K
0J
0A
0?
1^
0T
1N
1f
0L
0c
1R
1_
0B
1@
18
1c
0_
0V
1\
0P
0g
0^
0Q
0N
1d
0]
1,
1a
19
0:
0d
0X
0f
1]
1g
1Q
0h
0c
0[
0\
1P
0.
1-
0a
0i
0<
09
1;
1:
1_
1h
1d
0b
0]
0Q
1.
1/
0-
00
0:
0;
1c
0_
0/
0.
1a
19
0d
1-
0a
09
1:
1.
0-
#170000
1!
1?
1L
1B
0@
08
1T
1Q
1N
1]
0,
1V
1`
0R
1_
1b
1X
0j
1e
1d
1k
1=
0:
0c
1f
1[
0h
0.
11
0k
0=
1;
1j
0e
0d
0g
0`
1\
1/
01
1i
1k
1=
1<
1:
1d
0f
0b
0]
1.
10
11
0k
0i
1a
19
0<
0=
0:
1g
1c
0_
0.
01
00
1-
1h
0d
0a
09
1:
0;
0/
1.
0-
#180000
1&
0%
1"
0!
1G
0>
1A
0?
1]
1U
0B
1_
1^
0]
1a
19
0_
1-
0a
09
0-
#190000
1!
1?
0^
0T
1@
18
1_
0V
1,
1b
1a
19
0c
1-
1d
0:
0.
#200000
1#
0"
0!
1J
0A
0?
1c
0_
1^
0@
08
0d
0c
1_
0,
0a
09
1:
1d
1.
0-
1a
19
0:
0.
1-
#210000
1%
1!
1>
1?
1B
0^
1T
1R
1]
1V
1c
0_
0X
1_
0b
1X
0d
1f
0[
0a
09
1:
0c
0f
1[
0g
1`
0\
1.
0-
1a
1i
1<
19
1g
0`
1\
0h
1f
1b
0]
1-
10
1k
0a
09
1=
1;
1h
1d
0f
0b
1]
0g
1c
0_
1/
11
0-
0i
0k
1a
19
0=
0<
0:
0;
1g
0c
1_
0h
0d
0/
0.
00
01
1-
0a
09
1:
1;
1h
1d
1/
1.
0-
1a
19
0:
0;
0/
0.
1-
#220000
1"
0!
1A
0?
0_
1^
0B
1@
18
1_
0]
1,
0a
09
0_
0-
1a
19
1-
0a
09
0-
#230000
1!
1?
0^
0T
1B
0@
08
1_
1]
0j
0,
1j
0_
1a
19
0j
1-
0a
09
0-
#240000
1(
0'
1$
0&
0#
0%
0"
0!
1E
0F
1K
0G
0J
0>
0A
0?
1Z
1b
0W
0Q
0]
0U
1c
0P
0B
1_
1^
0g
0X
0V
1j
0d
1Q
1]
1a
19
1:
0h
1f
0b
0_
1.
1-
1;
1g
0c
1/
0a
09
1h
0j
1d
0-
0:
0;
0/
0.
#250000
1!
1?
0^
1T
0R
1P
1@
18
1c
1_
0g
0Q
1j
1,
0d
0h
0[
1a
19
1;
1:
1`
0\
1.
1/
1-
1i
1<
0f
1b
0]
10
1k
0i
0<
1=
1g
0c
0_
11
00
1h
1d
0a
09
0:
0;
0/
0.
0-
#260000
1"
0!
1A
0?
1_
1^
1a
0@
08
19
0d
0_
1-
0,
0a
09
1:
1d
1.
0-
1a
19
0:
0.
1-
#270000
1%
1!
1>
1?
1B
0^
0T
1]
1_
0_
0d
0a
09
1:
1d
1.
0-
1a
19
0:
0.
1-
#280000
1#
0"
0!
1J
0A
0?
1c
1_
1^
0B
0a
1@
18
09
0d
0c
0_
0]
0-
1,
1a
19
1:
1d
1_
1.
1-
0a
09
0:
0.
0-
1a
19
1-
#290000
1!
1?
0^
1T
1R
1B
0a
0@
08
09
1c
0_
1V
1]
0d
0-
0,
1:
0b
1_
1.
1a
19
0c
0j
1e
1d
1-
0a
09
0:
1j
0e
0d
0h
0.
0-
0k
0=
1;
1:
1h
1.
1/
01
1k
1=
0;
0/
11
#300000
1&
0%
1"
0!
1G
0>
1A
0?
0]
1U
0B
0_
1^
1]
1d
1a
19
0:
1_
0.
1-
0d
0a
09
1:
1.
0-
#310000
1!
1?
0^
0T
1a
1@
18
19
0_
0V
1d
1-
1,
0:
1b
0.
0a
09
1c
0-
0d
1:
1.
#320000
0)
0$
0#
0"
0!
0M
0K
0J
0A
0?
0N
1f
0L
0c
0P
1_
1a
0@
08
19
0`
1P
1Q
1-
0,
0a
09
1d
0g
0Q
1[
0-
0k
1a
19
0=
0:
0h
0[
0.
01
1-
1i
1<
1;
1/
10
0i
0<
00
#330000
1%
1!
1>
1?
1B
1L
0]
1V
0_
0b
0j
1c
0a
09
1j
0d
0-
1:
1.
#340000
1"
0!
1A
0?
1_
1T
0B
1@
18
1]
1,
1a
19
0_
1-
0a
09
0-
#350000
1!
1?
1B
0@
08
0]
0,
1_
1a
19
1-
#360000
1'
0&
1#
0%
0"
0!
1F
0G
1J
0>
0A
0?
1b
1W
1]
0U
0c
0R
0B
0_
0T
1c
1X
1_
0V
0j
1d
0]
0a
09
0:
1j
0d
0f
1[
0b
0_
0.
0-
1a
19
1:
1g
0c
1.
1-
1i
0a
09
1<
1h
0j
1d
10
0-
0:
0;
0/
0.
#370000
1!
1?
1@
18
1j
1,
#380000
1"
0!
1A
0?
1_
1T
0@
08
0,
1a
19
1-
#390000
1%
1!
1>
1?
1B
1]
1V
0_
1b
0j
1c
0a
09
1j
0d
0-
1:
1.
#400000
1$
0#
0"
0!
1K
0J
0A
0?
1f
1Q
0c
1R
1_
0T
0B
1@
18
0g
1d
0V
0]
1,
1a
19
0:
0h
0b
0X
0_
0.
1-
1;
1c
0f
1/
0a
09
0d
1g
0-
1:
1h
1.
0;
0/
#410000
1!
1?
1B
0@
08
1]
0,
1_
1a
19
1-
#420000
1&
0%
1"
0!
1G
0>
1A
0?
0]
1U
0B
0_
1T
1_
1V
1]
0a
09
1b
1X
0_
0-
1a
19
0c
1f
1-
0a
09
0j
1d
0g
0-
0:
0h
0.
1;
1/
#430000
1!
1?
1@
18
1j
1,
#440000
1#
0"
0!
1J
0A
0?
1c
0R
1_
0T
0@
08
0d
0V
0,
1a
19
1:
0b
1.
1-
0c
1d
0:
0.
#450000
1%
1!
1>
1?
1B
0]
1V
0_
1b
0j
1c
0a
09
1j
0d
0-
1:
1.
#460000
1"
0!
1A
0?
1_
1T
0B
1@
18
1]
1,
1a
19
0_
1-
0a
09
0-
#470000
1!
1?
1B
0@
08
0]
0,
1_
1a
19
1-
#480000
1*
0(
1)
0'
0$
0&
0#
0%
0"
0!
1C
0E
1M
0F
0K
0G
0J
0>
0A
0?
1O
1I
0H
1^
0T
1N
0b
0L
1]
0c
1R
0B
0_
1\
0V
0Z
0W
0U
0I
0P
0^
0Q
0N
0j
1d
0a
09
0:
0f
0X
0[
1g
1Q
1c
1_
0\
1P
0.
0-
0i
0<
1h
1j
0d
1b
0]
0Q
00
1a
19
1:
0;
0c
0_
0/
1.
1-
0j
1d
0a
09
0:
0.
0-
#490000
1!
1?
1L
1@
18
1T
1Q
1N
1j
1,
1`
0R
1k
1=
11
#500000
1"
0!
1A
0?
1_
1^
1a
0@
08
19
0d
0_
1-
0,
0a
09
1:
1d
1.
0-
1a
19
0:
0.
1-
#510000
1%
1!
1>
1?
1H
1B
0^
0T
1\
1Z
1W
1U
1]
1_
1f
0b
0]
1[
1X
1V
0_
0d
1i
0a
09
1<
1:
0g
1c
1_
0f
1b
1d
1.
10
0-
0i
1a
19
0<
0:
0h
0j
1e
1g
0c
0.
00
1-
0a
09
1;
1j
0e
0d
1/
0-
1:
1h
1.
0;
0/
#520000
1#
0"
0!
1J
0A
0?
1c
0_
1^
0B
1a
1@
18
19
0c
1_
1]
0V
1-
1,
0a
09
1d
0_
0b
0-
1a
19
0:
1c
0.
1-
0a
09
0d
0-
1:
1.
#530000
1!
1?
0^
1T
1R
1B
1a
0@
08
19
0c
1_
1V
0X
0]
1-
0,
1b
1X
1f
0_
0a
09
1c
0f
0g
1d
0-
1a
19
0:
0d
1g
0h
0.
1-
1;
1:
1h
1.
1/
0;
0/
#540000
1&
0%
1"
0!
1G
0>
1A
0?
1]
0U
1I
0B
1_
1^
0j
1e
1d
0a
09
0:
0h
0.
0-
0k
0=
1;
1/
01
1k
1=
11
#550000
1!
1?
0^
0T
1a
1@
18
19
0_
0V
1j
0e
0d
1-
1,
1:
0b
0X
1h
1.
0a
09
0;
0c
1f
0/
0-
1d
0g
0:
0h
0.
1;
1/
#560000
1$
0#
0"
0!
1K
0J
0A
0?
0f
0Q
1c
0P
1_
1^
1a
0@
08
19
0[
0j
1e
1Q
0c
0_
1-
0,
0a
09
1h
1[
1j
0e
0-
1a
19
0;
0h
0/
1-
1;
1/
#570000
1%
1!
1>
1?
0I
1B
0^
1T
0R
1P
1V
1c
1_
1X
1g
0Q
1b
0j
1e
1f
1h
0a
09
0;
0c
0h
0g
0/
0-
0k
0=
1;
1j
0e
0d
1h
1/
01
1k
1i
1<
1=
0;
1:
0h
1.
0/
11
10
0i
0<
1;
1/
00
#580000
1"
0!
1A
0?
0_
1^
0B
1a
1@
18
19
1d
1_
0]
0V
1-
1,
0a
09
0:
0_
0b
0.
0-
1a
19
1c
1-
0a
09
0d
0-
1:
1.
#590000
1!
1?
0^
0T
1B
1a
0@
08
19
1_
1]
1-
0,
0j
1e
1d
0_
0a
09
0:
1h
1j
0e
0d
0.
0-
1i
1a
19
1<
1:
0;
0h
0/
1.
10
1-
0i
0<
1;
1/
00
#600000
1'
0&
1#
0%
0"
0!
1F
0G
1J
0>
0A
0?
1b
0W
0]
1U
0S
0c
1I
0B
1_
1^
0b
0a
09
1c
0-
0j
1e
1d
0:
1h
0.
1i
1<
0;
0/
10
#610000
1!
1?
0^
1T
1R
1a
1@
18
19
0c
0_
0X
1j
0e
0d
1-
1,
1:
1d
0f
0[
0h
1.
0a
0i
0<
09
1;
0:
1g
0.
1/
0-
00
1i
1<
1h
10
0;
0/
#620000
1"
0!
1A
0?
1_
1^
1a
0@
08
19
0d
0_
1-
0,
0a
09
1:
1d
1.
0-
1a
19
0:
0.
1-
#630000
1%
1!
1>
1?
1S
0I
1B
0^
0T
1b
1V
1_
1c
0b
0d
0a
09
1:
0j
1e
1d
0c
1.
0-
0:
0h
1j
0e
0d
0.
1:
1;
1h
1/
1.
0;
0/
#640000
0)
0$
0#
0"
0!
0M
0K
0J
0A
0?
0N
1f
0L
1c
0P
0_
0B
1a
1@
18
19
0\
1P
1Q
1]
0V
1-
1,
0a
09
0f
0]
0g
0Q
1[
1_
0-
0i
0<
1g
0_
0h
0[
0`
1\
00
1i
1a
19
1<
1;
1h
1`
0\
1f
1b
1]
1/
10
1-
0a
0k
0=
09
0;
0f
0b
0]
0g
0c
1_
0/
0-
01
1k
0i
0<
1=
1g
1c
0_
0h
1d
11
00
1a
19
0:
1;
1h
0d
1/
0.
1-
0a
09
1:
0;
0/
1.
0-
#650000
1!
1?
1L
1B
1a
0@
08
19
1]
1V
1-
0,
1_
1b
0j
1e
1d
0c
0a
09
0:
0h
1j
0e
0d
0.
0-
0k
0=
1:
1;
1h
1/
1.
01
1k
1=
0;
0/
11
#660000
1&
0%
1"
0!
1G
0>
1A
0?
0]
0U
1I
0B
0_
1T
1_
1d
1a
19
0:
0d
0.
1-
0a
09
1:
1.
0-
#670000
1!
1?
1a
1@
18
19
1d
1-
1,
0:
0.
#680000
1#
0"
0!
1J
0A
0?
1c
0R
0_
0T
0a
0@
08
09
0d
1X
0V
0-
0,
1a
19
1:
1f
1[
0b
0X
1.
1-
0g
0`
1\
0c
0f
0[
1i
1<
0h
0j
1d
1f
1b
1]
1g
1`
0\
10
0k
0a
09
0=
0:
1;
0g
1c
1_
1h
1j
0f
0b
0]
1/
0.
01
0-
1k
0i
1a
19
0<
1=
0;
0h
0j
1e
1g
0c
0_
0/
11
00
1-
0a
09
1;
1j
0e
1/
0-
1a
19
1h
1-
0;
0/
#690000
1%
1!
1>
1?
0I
1B
#700000
1"
0!
1A
0?
1_
1T
0B
0a
1@
18
09
1]
0-
1,
1a
19
0_
1-
0a
09
0-
#710000
1!
1?
1B
1a
0@
08
19
0]
1V
1-
0,
1_
1b
1X
0d
1c
1f
1[
0a
09
1:
0j
1e
1d
0g
0`
1\
1.
0-
1i
1<
0:
1j
0e
0d
0f
0b
1]
0.
10
0k
1a
19
0=
1:
0h
1g
0c
0_
1.
01
1-
0i
0<
1;
1h
0j
1d
1/
00
0a
09
0:
0;
0/
0.
0-
#720000
1(
0'
1$
0&
0#
0%
0"
0!
1E
0F
1K
0G
0J
0>
0A
0?
0Z
1b
1W
1Q
0]
1U
0S
1c
1R
1I
0B
1_
0T
0c
0g
1Y
0X
0_
0V
0b
1j
0d
1a
19
1:
0j
1d
0h
1f
1b
1c
1.
1-
0a
09
1;
0:
1g
0c
1j
0d
0.
1/
0-
1:
1h
0j
1d
1.
0:
0;
0/
0.
#730000
1!
1?
1@
18
1j
1,
#740000
1"
0!
1A
0?
1_
1T
0@
08
0,
1a
19
1-
#750000
1%
1!
1>
1?
1S
0I
1B
0g
0b
0Y
1V
0h
1c
0[
1b
1X
1;
0d
1`
0\
0c
0f
1[
1/
1i
1<
1:
1f
0b
1]
1g
0`
1\
1.
10
1k
0a
09
1=
0g
1c
0_
1h
1d
0f
1b
0]
11
0-
0i
0k
1a
19
0=
0<
0:
0;
0h
0d
1g
0c
1_
0/
0.
00
01
1-
0a
09
1:
1;
1h
1d
1/
1.
0-
1a
19
0:
0;
0/
0.
1-
#760000
1#
0"
0!
1J
0A
0?
1c
0R
0_
0T
0B
1@
18
0d
0V
1]
1,
0a
09
1:
0b
1_
1.
0-
0c
1a
19
1d
1-
0:
0.
#770000
1!
1?
1B
0@
08
0]
1V
0,
0_
1b
0j
1c
0a
09
1j
0d
0-
1:
1.
#780000
1&
0%
1"
0!
1G
0>
1A
0?
1]
0U
1I
0B
1_
1T
0_
1a
19
1-
0a
09
0-
#790000
1!
1?
1@
18
1,
#800000
1)
0$
0#
0"
0!
1M
0K
0J
0A
0?
1^
0T
1N
1f
0L
0c
1R
1_
0@
08
1c
0_
0V
1`
0P
0g
0^
0Q
0N
1d
0,
1a
19
0:
0d
0b
0X
1g
1Q
0h
0c
1_
0[
0`
1P
0.
1-
1k
1=
1;
1:
1c
0f
1h
1d
1`
0\
0g
0Q
1.
1/
11
1i
0k
0=
1<
0:
0;
0j
1e
1g
1f
1b
0]
0h
0/
0.
10
01
1k
0a
0i
0<
09
1=
1;
0g
0c
0_
1/
11
0-
00
1h
1j
0e
1i
1a
19
1<
0;
0h
0/
10
1-
0i
0<
1;
1/
00
#810000
1%
1!
1>
1?
0I
1B
1L
1T
1Q
1N
1V
1\
0R
1X
0f
1]
1i
1<
1f
1[
1g
1_
10
0g
1h
0d
0i
0a
09
0<
1:
0;
0h
0/
1.
00
0-
1;
1/
#820000
1"
0!
1A
0?
0_
1^
0B
1a
1@
18
19
1d
1_
0]
0V
1-
1,
0a
09
0:
0_
0b
0.
0-
1a
19
1c
1-
0a
09
0d
0-
1:
1.
#830000
1!
1?
0^
0T
1B
1a
0@
08
19
1_
1]
1-
0,
0j
1e
1d
0_
0a
09
0:
1h
1j
0e
0d
0.
0-
1i
1a
19
1<
1:
0;
0h
0/
1.
10
1-
0i
0<
1;
1/
00
#840000
1'
0&
1#
0%
0"
0!
1F
0G
1J
0>
0A
0?
1b
0W
0]
1U
0S
0c
1I
0B
1_
1^
0b
0a
09
1c
0-
0j
1e
1d
0:
1h
0.
1i
1<
0;
0/
10
#850000
1!
1?
0^
1T
1R
1a
1@
18
19
0c
0_
0X
1j
0e
0d
1-
1,
1:
1d
0f
0[
0h
1.
0a
0i
0<
09
1;
0:
1g
0.
1/
0-
00
1i
1<
1h
10
0;
0/
#860000
1"
0!
1A
0?
1_
1^
1a
0@
08
19
0d
0_
1-
0,
0a
09
1:
1d
1.
0-
1a
19
0:
0.
1-
#870000
1%
1!
1>
1?
1S
0I
1B
0^
0T
1b
1V
1_
1c
0b
0d
0a
09
1:
0j
1e
1d
0c
1.
0-
0:
0h
1j
0e
0d
0.
1:
1;
1h
1/
1.
0;
0/
#880000
1$
0#
0"
0!
1K
0J
0A
0?
1f
0Q
1c
0P
0_
1^
0B
1a
1@
18
19
1Q
0c
1_
1]
0V
1-
1,
0a
09
1d
0_
1b
0-
1a
19
0:
1c
0.
1-
0a
09
0d
0-
1:
1.
#890000
1!
1?
0^
1T
0R
1P
1B
1a
0@
08
19
0c
1_
1V
0g
0Q
0]
1-
0,
0b
1X
0h
0_
0a
09
1;
1c
0f
1d
1/
0-
1a
19
0:
0d
1g
0.
1-
1:
1h
1.
0;
0/
#900000
1&
0%
1"
0!
1G
0>
1A
0?
1]
0U
1I
0B
1_
1^
0j
1e
1d
0a
09
0:
0h
0.
0-
1;
1/
#910000
1!
1?
0^
0T
1a
1@
18
19
0_
0V
1j
0e
0d
1-
1,
1:
1b
0X
1h
1.
0a
09
0;
0c
1f
0/
0-
1d
0g
0:
0h
0.
1;
1/
#920000
1#
0"
0!
1J
0A
0?
1c
1_
1^
1a
0@
08
19
0j
1e
0c
0_
1-
0,
0a
09
1h
1j
0e
0-
0i
1a
19
0<
0;
0h
0/
00
1-
1i
1<
1;
1/
10
#930000
1%
1!
1>
1?
0I
1B
0^
1T
1R
1V
1c
1_
0b
0j
1e
0a
09
0c
1h
0-
0i
0<
0;
1j
0e
0d
0/
00
0k
0=
1:
0h
1.
01
1k
1i
1<
1=
1;
1/
11
10
#940000
1"
0!
1A
0?
0_
1^
0B
1a
1@
18
19
1d
1_
0]
0V
1-
1,
0a
09
0:
0_
1b
0.
0-
1a
19
1c
1-
0a
09
0d
0-
1:
1.
#950000
1!
1?
0^
0T
1B
1a
0@
08
19
1_
1]
1-
0,
0j
1e
1d
0_
0a
09
0:
1h
1j
0e
0d
0.
0-
0i
1a
19
0<
1:
0;
0h
0/
1.
00
1-
1i
1<
1;
1/
10
#960000
0*
0(
0)
0'
0$
0&
0#
0%
0"
0!
0C
0E
0M
0F
0K
0G
0J
0>
0A
0?
0O
0H
0N
0b
0L
0]
0S
0c
0P
0B
1_
0`
0\
1S
1P
1c
1Q
0_
1g
1b
1]
0a
09
0f
0]
0g
0Q
1h
0c
1_
0-
0k
0i
0<
0=
0;
1g
0_
0h
1d
0/
01
00
1a
19
0:
1;
1h
0j
1/
0.
1-
0a
09
0;
0/
0-
#970000
1!
1?
1L
1@
18
1j
1,
#980000
1"
0!
1A
0?
1_
1T
0@
08
0,
1a
19
1-
#990000
1%
1!
1>
1?
1H
1B
1]
1V
0_
0b
0j
1c
0a
09
1j
0d
0-
1:
1.
