projetoSD/simulation/qsim/SDprojeto.msim.vcd
$comment
	File created using the following command:
		vcd file SDprojeto.msim.vcd -direction
$end
$date
	Sat Apr 25 12:45:08 2026
$end
$version
	ModelSim Version 2020.1
$end
$timescale
	1ps
$end

$scope module somador_vlg_vec_tst $end
$var reg 1 ! A0 $end
$var reg 1 " A1 $end
$var reg 1 # A2 $end
$var reg 1 $ A3 $end
$var reg 1 % B0 $end
$var reg 1 & B1 $end
$var reg 1 ' B2 $end
$var reg 1 ( B3 $end
$var reg 1 ) SA $end
$var reg 1 * SB $end
$var reg 1 + SLECT $end
$var wire 1 , F0 $end
$var wire 1 - F1 $end
$var wire 1 . F2 $end
$var wire 1 / F3 $end
$var wire 1 0 F4 $end
$var wire 1 1 SF $end

$scope module i1 $end
$var wire 1 2 gnd $end
$var wire 1 3 vcc $end
$var wire 1 4 unknown $end
$var tri1 1 5 devclrn $end
$var tri1 1 6 devpor $end
$var tri1 1 7 devoe $end
$var wire 1 8 F0~output_o $end
$var wire 1 9 F1~output_o $end
$var wire 1 : F2~output_o $end
$var wire 1 ; F3~output_o $end
$var wire 1 < F4~output_o $end
$var wire 1 = SF~output_o $end
$var wire 1 > B0~input_o $end
$var wire 1 ? A0~input_o $end
$var wire 1 @ inst9|inst12~0_combout $end
$var wire 1 A SLECT~input_o $end
$var wire 1 B SB~input_o $end
$var wire 1 C inst1|inst|inst4~0_combout $end
$var wire 1 D inst3|inst5~0_combout $end
$var wire 1 E inst12~combout $end
$var wire 1 F B3~input_o $end
$var wire 1 G inst1|inst15~combout $end
$var wire 1 H B1~input_o $end
$var wire 1 I inst1|inst1|inst4~combout $end
$var wire 1 J B2~input_o $end
$var wire 1 K inst1|inst14~combout $end
$var wire 1 L inst1|inst3|inst4~combout $end
$var wire 1 M SA~input_o $end
$var wire 1 N A1~input_o $end
$var wire 1 O A2~input_o $end
$var wire 1 P inst|inst2|inst4~combout $end
$var wire 1 Q A3~input_o $end
$var wire 1 R inst|inst3|inst1~combout $end
$var wire 1 S inst1|inst2|inst4~combout $end
$var wire 1 T inst|inst2|inst1~combout $end
$var wire 1 U inst|inst1|inst1~combout $end
$var wire 1 V inst1|inst13~combout $end
$var wire 1 W inst4|inst6~0_combout $end
$var wire 1 X inst5|inst6~0_combout $end
$var wire 1 Y inst6|inst6~0_combout $end
$var wire 1 Z inst|inst4|inst1~0_combout $end
$var wire 1 [ inst7|inst6~0_combout $end
$var wire 1 \ inst9|inst1|inst1~2_combout $end
$var wire 1 ] inst9|inst1|inst1~3_combout $end
$var wire 1 ^ inst8|inst1~combout $end
$var wire 1 _ inst9|inst1|inst1~4_combout $end
$var wire 1 ` inst9|inst14~0_combout $end
$var wire 1 a inst9|inst14~1_combout $end
$var wire 1 b inst9|inst14~2_combout $end
$var wire 1 c inst9|inst2|inst1~combout $end
$var wire 1 d inst9|inst2|inst4~combout $end
$var wire 1 e inst9|inst15~0_combout $end
$var wire 1 f inst9|inst15~1_combout $end
$var wire 1 g inst9|inst3|inst1~combout $end
$var wire 1 h inst9|inst4|inst1~0_combout $end
$var wire 1 i inst9|inst4|inst1~1_combout $end
$upscope $end
$upscope $end
$enddefinitions $end
#0
$dumpvars
0!
0"
0#
0$
0%
0&
0'
0(
0)
0*
0+
0,
0-
0.
0/
00
01
02
13
x4
15
16
17
08
09
0:
0;
0<
0=
0>
0?
0@
0A
0B
0C
0D
0E
0F
0G
0H
1I
0J
0K
0L
0M
0N
0O
1P
0Q
1R
0S
1T
0U
0V
0W
0X
0Y
0Z
0[
0\
0]
0^
0_
1`
0a
0b
1c
0d
0e
1f
1g
0h
0i
$end
#10000
1!
1?
1@
18
1,
#20000
1"
1%
0!
1N
1>
0?
1\
1U
1]
1_
19
1-
#30000
1!
1?
1D
0@
08
0]
1W
0,
1a
0_
09
1b
0-
0c
1:
1.
#40000
1#
1&
0"
0%
0!
1O
1H
0N
0>
0?
0`
0T
1V
0U
0D
0b
1X
0W
1]
1c
1e
0a
0X
1_
19
0:
0f
1b
0e
0.
1-
0g
0c
1f
1:
1;
1g
1/
1.
0;
0/
#50000
1!
1?
1@
18
1,
#60000
1"
1%
0!
1N
1>
0?
0\
1U
0]
1W
1a
1X
0_
09
0b
1e
0-
1c
0f
0:
0g
0.
1;
1/
#70000
1!
1?
1D
0@
08
1]
0,
1_
19
1-
#80000
1$
1'
0#
0&
0"
0%
0!
1Q
1J
0O
0H
0N
0>
0?
1f
0R
0a
1K
1`
1T
0V
0U
0D
1g
1Y
0W
0]
0;
1h
1a
0X
0/
0_
09
1b
0e
0Y
0-
1i
1<
0c
0f
0h
10
1:
0g
1.
0i
0<
1;
1/
00
#90000
1!
1?
1@
18
1,
#100000
1"
1%
0!
1N
1>
0?
1\
1U
1]
1_
19
1-
#110000
1!
1?
1D
0@
08
0]
1W
0,
0a
1X
0_
09
0b
1e
1Y
0-
1c
1f
1h
0:
1g
0.
1i
1<
0;
0/
10
#120000
1#
1&
0"
0%
0!
1O
1H
0N
0>
0?
0`
0T
1V
0U
0D
1b
0W
1]
0c
1a
1_
19
1:
0b
1.
1-
1c
0:
0.
#130000
1!
1?
1@
18
1,
#140000
1"
1%
0!
1N
1>
0?
0\
1U
0]
1W
0a
0_
09
1b
0-
0c
1:
1.
#150000
1!
1?
1D
0@
08
1]
0,
1_
19
1-
#160000
1)
1(
0$
0'
0#
0&
0"
0%
0!
1M
1F
0Q
0J
0O
0H
0N
0>
0?
0h
1\
1Z
0U
1T
0P
0e
1G
0f
1a
0K
0V
0D
1^
1=
1[
0W
0X
0Z
1R
0g
0b
1d
1c
11
0_
09
0:
1;
1h
0]
0Y
0[
0d
0c
1g
1/
0.
0-
0^
0=
0;
1:
1c
1e
0a
1]
0g
1.
0/
01
1^
1=
1;
0:
1f
1b
0c
0.
1/
11
1:
1g
1d
1c
1.
0:
0;
0g
0/
0.
1;
1/
#170000
1!
1?
1`
0\
1U
0T
1P
1_
1@
18
19
0b
0]
0f
1Z
0R
0d
0c
1-
1,
1:
1c
1Y
1.
0_
0i
0<
09
0:
0h
1[
0.
0-
00
1h
0e
1a
1]
1i
0^
0=
1<
1f
1b
10
01
0i
1_
19
0<
1g
0c
00
1-
1:
0;
0/
1.
#180000
1"
1%
0!
1N
1>
0?
#190000
1!
1?
1\
0U
1D
0@
08
0,
#200000
1#
1&
0"
0%
0!
1O
1H
0N
0>
0?
0\
1V
0D
#210000
1!
1?
0`
1\
1U
1T
1@
18
0b
0]
1W
1,
1c
0a
0_
09
0:
1b
0.
0-
0c
1:
1.
#220000
1"
1%
0!
1N
1>
0?
#230000
1!
1?
0\
0U
1D
0@
08
0,
#240000
1$
1'
0#
0&
0"
0%
0!
1Q
1J
0O
0H
0N
0>
0?
0f
1R
1a
1K
0P
1\
0V
0D
0g
0Y
0b
1X
1f
0R
0W
1;
0h
0[
1c
1e
1Y
1g
0a
0X
1/
0;
0:
1a
1]
0f
1[
1b
0.
0/
1i
1^
1=
1<
0b
1d
0g
1h
0e
0a
0]
10
11
0^
0=
1;
0d
1g
1f
1b
1/
01
0;
0c
0/
0i
0<
1:
1.
00
#250000
1!
1?
1`
0\
1U
0T
1P
1@
18
0b
1]
1X
0f
1R
1,
1c
1e
0g
1_
19
1;
0:
1f
0.
1/
1-
1g
0;
0/
#260000
1"
1%
0!
1N
1>
0?
#270000
1!
1?
1\
0U
1D
0@
08
0,
#280000
1#
1&
0"
0%
0!
1O
1H
0N
0>
0?
0\
1V
0D
#290000
1!
1?
0`
1\
1U
1T
1@
18
1b
0]
1W
0X
1,
0c
1a
1X
0e
0Y
0_
09
1:
0b
1e
1Y
0f
0h
0[
1.
0-
1c
1f
1[
0g
0e
0a
1]
1i
1^
1=
1<
1;
0:
1g
1h
1e
1a
0]
0f
1b
0.
1/
10
11
0^
1_
19
0=
0;
1f
0b
0c
0g
0/
01
1-
0i
0_
09
0<
1;
1:
1g
1c
1.
1/
00
0-
0:
0;
0/
0.
#300000
1"
1%
0!
1N
1>
0?
#310000
1!
1?
0\
0U
1D
0@
08
0,
#320000
1*
0)
0(
0$
0'
0#
0&
0"
0%
0!
1B
0M
0F
0Q
0J
0O
0H
0N
0>
0?
0I
1E
1C
0h
1`
0Z
0e
0f
0a
0D
1b
0X
1S
1L
0W
1f
0g
1;
0c
1e
0Y
0f
1h
0[
1a
1g
1/
0;
1:
1f
0g
0e
0a
1]
0b
1.
0/
1i
1^
1=
1<
1;
1g
0f
1b
1/
10
11
0;
0g
1d
1c
0/
0:
1;
1g
1/
0.
0i
0<
0;
0/
00
#330000
1!
1?
1_
1@
18
19
0d
0c
1-
1,
1:
0g
1.
1i
1<
1;
1/
10
#340000
1"
1%
0!
1N
1>
0?
1\
1U
1I
0C
1W
0b
0S
0L
1a
1X
1c
1f
0h
0:
1b
1e
1Y
1g
0.
0i
0<
0;
0c
0f
1h
1[
0/
00
1:
0g
0h
0e
0a
0]
1.
1i
0^
0=
1<
1;
1f
0b
1/
10
01
0i
0_
09
0<
1g
1c
00
0-
0:
0;
0/
0.
#350000
1!
1?
1D
0@
08
1]
0,
1_
19
1-
#360000
1#
1&
0"
0%
0!
1O
1H
0N
0>
0?
0`
0T
0V
0U
0D
1C
1b
0W
0c
1a
1:
0b
1.
1c
0:
0.
#370000
1!
1?
1@
18
1,
#380000
1"
1%
0!
1N
1>
0?
0\
1U
0C
#390000
1!
1?
1D
0@
08
0]
1W
0,
0a
0_
09
1b
0-
0c
1:
1.
#400000
1$
1'
0#
0&
0"
0%
0!
1Q
1J
0O
0H
0N
0>
0?
0f
0R
1a
0K
1`
1T
1V
0I
0U
0D
1C
0g
0b
0W
1;
1c
0a
0X
1/
0:
1b
1e
0.
0c
1f
1:
1g
1.
0;
0/
#410000
1!
1?
1@
18
1,
#420000
1"
1%
0!
1N
1>
0?
1\
1U
1I
0C
1W
0b
1a
1c
0:
1b
0.
0c
1:
1.
#430000
1!
1?
1D
0@
08
1]
0,
1_
19
1-
#440000
1#
1&
0"
0%
0!
1O
1H
0N
0>
0?
0`
0T
0V
0U
0D
1C
0b
1X
0W
1c
0e
0a
0X
0:
0f
1b
1e
0.
0g
0c
1f
1:
1;
1g
1/
1.
0;
0/
#450000
1!
1?
1@
18
1,
#460000
1"
1%
0!
1N
1>
0?
0\
1U
0C
#470000
1!
1?
1D
0@
08
0]
1W
0,
1a
1X
0_
09
0b
0e
0-
1c
0f
0:
0g
0.
1;
1/
#480000
1)
1(
0$
0'
0#
0&
0"
0%
0!
1M
1F
0Q
0J
0O
0H
0N
0>
0?
1h
1\
1Z
0U
1T
0P
1e
0G
1f
0a
1K
1V
0I
0D
1C
1^
1=
1]
0W
0X
0Z
1R
1g
1S
11
1_
19
0;
0c
1a
0e
0Y
0f
0/
1-
0_
1i
1<
09
1:
1b
1f
0h
0[
0g
1.
0-
10
1;
1d
1c
1g
1h
1e
0a
0]
1/
0i
0^
0=
0<
0;
0:
0g
0f
0b
0d
0c
0.
0/
00
01
1i
1<
1:
1;
1c
1/
1.
10
0:
0.
#490000
1!
1?
1`
0\
1U
0T
1P
1@
18
1b
1]
1f
1Z
0R
1,
0c
1g
1[
1Y
1_
0i
0<
19
0;
1:
0e
1a
0]
1.
0/
1-
00
1^
1=
0f
0b
11
0_
09
0g
1c
0-
0:
1;
1/
0.
#500000
1"
1%
0!
1N
1>
0?
1I
0C
1b
1X
0S
1]
1W
0c
1e
1f
0a
1_
19
1:
0f
1g
0b
1.
1-
0;
0g
1c
0/
0:
1;
1/
0.
#510000
1!
1?
1\
0U
1D
0_
0@
08
09
0c
0-
0,
1:
1.
#520000
1#
1&
0"
0%
0!
1O
1H
0N
0>
0?
0\
0V
0D
1C
0]
0W
1c
1a
1_
19
0:
1b
0.
1-
0c
1:
1.
#530000
1!
1?
0`
1\
1U
1T
0_
1@
18
09
0b
1]
1W
0X
0-
1,
1c
0a
1X
0e
0Y
1_
19
0:
1b
1e
1Y
1f
0h
0.
1-
0c
0f
1h
1g
1i
1<
0;
1:
0g
1.
0/
10
0i
0<
1;
1/
00
#540000
1"
1%
0!
1N
1>
0?
0C
0]
0W
1a
0X
0_
09
0b
0e
0Y
0-
1c
1f
0h
0:
1g
0.
1i
1<
0;
0/
10
#550000
1!
1?
0\
0U
1D
1_
0@
08
19
1-
0,
#560000
1$
1'
0#
0&
0"
0%
0!
1Q
1J
0O
0H
0N
0>
0?
0f
1R
0a
0K
0P
1\
1V
0I
0D
1C
0g
1f
0R
1]
1;
1g
0c
1/
0_
09
1:
0;
0/
1.
0-
#570000
1!
1?
1`
0\
1U
0T
1P
1_
1@
18
19
1b
0]
1X
0f
1R
1c
1-
1,
0:
0c
1e
0g
0.
0_
09
1;
1:
1f
1.
1/
0-
1g
0;
0/
#580000
1"
1%
0!
1N
1>
0?
1I
0C
0b
0X
1]
1W
1c
0e
1a
1X
1_
19
0:
0f
1b
1e
0.
1-
0g
0c
1f
1:
1;
1g
1/
1.
0;
0/
#590000
1!
1?
1\
0U
1D
0_
0@
08
09
1d
1c
0-
0,
0:
0g
0.
1;
1/
#600000
1#
1&
0"
0%
0!
1O
1H
0N
0>
0?
0\
0V
0D
1C
0]
0W
0d
0c
0a
0X
1_
19
1:
1g
0b
0e
1.
1-
0;
1c
0f
0/
0:
0g
0.
1;
1/
#610000
1!
1?
0`
1\
1U
1T
0_
1@
18
09
1b
1]
1W
0-
1,
0c
1a
1_
19
1:
0b
1.
1-
1c
0:
0.
#620000
1"
1%
0!
1N
1>
0?
0C
0]
0W
0a
0_
09
1b
0-
0c
1:
1.
#630000
1!
1?
0\
0U
1D
1_
0@
08
19
1-
0,
#640000
0*
0)
0(
0$
0'
0#
0&
0"
0%
0!
0B
0M
0F
0Q
0J
0O
0H
0N
0>
0?
0E
1h
1`
0Z
1e
1f
1a
0D
0[
0f
1g
1]
0;
0h
0e
0a
0]
0g
1d
1c
0/
0^
0_
09
0=
0:
1;
1f
0b
0d
0c
1g
1/
0.
01
0-
0;
1:
1c
1.
0/
0i
0<
0:
0.
00
#650000
1!
1?
1@
18
1,
#660000
1"
1%
0!
1N
1>
0?
1\
1U
1]
1_
19
1-
#670000
1!
1?
1D
0@
08
0]
1W
0,
1a
0_
09
1b
0-
0c
1:
1.
#680000
1#
1&
0"
0%
0!
1O
1H
0N
0>
0?
0`
0T
1V
0U
0D
0b
1X
0W
1]
1c
1e
0a
0X
1_
19
0:
0f
1b
0e
0.
1-
0g
0c
1f
1:
1;
1g
1/
1.
0;
0/
#690000
1!
1?
1@
18
1,
#700000
1"
1%
0!
1N
1>
0?
0\
1U
0]
1W
1a
1X
0_
09
0b
1e
0-
1c
0f
0:
0g
0.
1;
1/
#710000
1!
1?
1D
0@
08
1]
0,
1_
19
1-
#720000
1$
1'
0#
0&
0"
0%
0!
1Q
1J
0O
0H
0N
0>
0?
1f
0R
0a
1K
1`
1T
0V
0U
0D
1g
1Y
0W
0]
0;
1h
1a
0X
0/
0_
09
1b
0e
0Y
0-
1i
1<
0c
0f
0h
10
1:
0g
1.
0i
0<
1;
1/
00
#730000
1!
1?
1@
18
1,
#740000
1"
1%
0!
1N
1>
0?
1\
1U
1]
1_
19
1-
#750000
1!
1?
1D
0@
08
0]
1W
0,
0a
1X
0_
09
0b
1e
1Y
0-
1c
1f
1h
0:
1g
0.
1i
1<
0;
0/
10
#760000
1#
1&
0"
0%
0!
1O
1H
0N
0>
0?
0`
0T
1V
0U
0D
1b
0W
1]
0c
1a
1_
19
1:
0b
1.
1-
1c
0:
0.
#770000
1!
1?
1@
18
1,
#780000
1"
1%
0!
1N
1>
0?
0\
1U
0]
1W
0a
0_
09
1b
0-
0c
1:
1.
#790000
1!
1?
1D
0@
08
1]
0,
1_
19
1-
#800000
1)
1(
0$
0'
0#
0&
0"
0%
0!
1M
1F
0Q
0J
0O
0H
0N
0>
0?
0h
1\
1Z
0U
1T
0P
0e
1G
0f
1a
0K
0V
0D
1^
1=
1[
0W
0X
0Z
1R
0g
0b
1d
1c
11
0_
09
0:
1;
1h
0]
0Y
0[
0d
0c
1g
1/
0.
0-
0^
0=
0;
1:
1c
1e
0a
1]
0g
1.
0/
01
1^
1=
1;
0:
1f
1b
0c
0.
1/
11
1:
1g
1d
1c
1.
0:
0;
0g
0/
0.
1;
1/
#810000
1!
1?
1`
0\
1U
0T
1P
1_
1@
18
19
0b
0]
0f
1Z
0R
0d
0c
1-
1,
1:
1c
1Y
1.
0_
0i
0<
09
0:
0h
1[
0.
0-
00
1h
0e
1a
1]
1i
0^
0=
1<
1f
1b
10
01
0i
1_
19
0<
1g
0c
00
1-
1:
0;
0/
1.
#820000
1"
1%
0!
1N
1>
0?
#830000
1!
1?
1\
0U
1D
0@
08
0,
#840000
1#
1&
0"
0%
0!
1O
1H
0N
0>
0?
0\
1V
0D
#850000
1!
1?
0`
1\
1U
1T
1@
18
0b
0]
1W
1,
1c
0a
0_
09
0:
1b
0.
0-
0c
1:
1.
#860000
1"
1%
0!
1N
1>
0?
#870000
1!
1?
0\
0U
1D
0@
08
0,
#880000
1$
1'
0#
0&
0"
0%
0!
1Q
1J
0O
0H
0N
0>
0?
0f
1R
1a
1K
0P
1\
0V
0D
0g
0Y
0b
1X
1f
0R
0W
1;
0h
0[
1c
1e
1Y
1g
0a
0X
1/
0;
0:
1a
1]
0f
1[
1b
0.
0/
1i
1^
1=
1<
0b
1d
0g
1h
0e
0a
0]
10
11
0^
0=
1;
0d
1g
1f
1b
1/
01
0;
0c
0/
0i
0<
1:
1.
00
#890000
1!
1?
1`
0\
1U
0T
1P
1@
18
0b
1]
1X
0f
1R
1,
1c
1e
0g
1_
19
1;
0:
1f
0.
1/
1-
1g
0;
0/
#900000
1"
1%
0!
1N
1>
0?
#910000
1!
1?
1\
0U
1D
0@
08
0,
#920000
1#
1&
0"
0%
0!
1O
1H
0N
0>
0?
0\
1V
0D
#930000
1!
1?
0`
1\
1U
1T
1@
18
1b
0]
1W
0X
1,
0c
1a
1X
0e
0Y
0_
09
1:
0b
1e
1Y
0f
0h
0[
1.
0-
1c
1f
1[
0g
0e
0a
1]
1i
1^
1=
1<
1;
0:
1g
1h
1e
1a
0]
0f
1b
0.
1/
10
11
0^
1_
19
0=
0;
1f
0b
0c
0g
0/
01
1-
0i
0_
09
0<
1;
1:
1g
1c
1.
1/
00
0-
0:
0;
0/
0.
#940000
1"
1%
0!
1N
1>
0?
#950000
1!
1?
0\
0U
1D
0@
08
0,
#960000
1*
0)
0(
0$
0'
0#
0&
0"
0%
0!
1B
0M
0F
0Q
0J
0O
0H
0N
0>
0?
0I
1E
1C
0h
1`
0Z
0e
0f
0a
0D
1b
0X
1S
1L
0W
1f
0g
1;
0c
1e
0Y
0f
1h
0[
1a
1g
1/
0;
1:
1f
0g
0e
0a
1]
0b
1.
0/
1i
1^
1=
1<
1;
1g
0f
1b
1/
10
11
0;
0g
1d
1c
0/
0:
1;
1g
1/
0.
0i
0<
0;
0/
00
#970000
1!
1?
1_
1@
18
19
0d
0c
1-
1,
1:
0g
1.
1i
1<
1;
1/
10
#980000
1"
1%
0!
1N
1>
0?
1\
1U
1I
0C
1W
0b
0S
0L
1a
1X
1c
1f
0h
0:
1b
1e
1Y
1g
0.
0i
0<
0;
0c
0f
1h
1[
0/
00
1:
0g
0h
0e
0a
0]
1.
1i
0^
0=
1<
1;
1f
0b
1/
10
01
0i
0_
09
0<
1g
1c
00
0-
0:
0;
0/
0.
#990000
1!
1?
1D
0@
08
1]
0,
1_
19
1-
